{
	"info": {
		"_postman_id": "8f17537a-20ff-4e51-b687-3e9eab23b94b",
		"name": "Game",
		"schema": "https://schema.getpostman.com/json/collection/v2.1.0/collection.json"
	},
	"item": [
		{
			"name": "http://localhost:8080/api/game",
			"request": {
				"method": "POST",
				"header": [
					{
						"key": "Content-Type",
						"value": "application/json"
					}
				],
				"body": {
					"mode": "raw",
                  "raw": "{\n\t\"humanChoice\": \"Stein\"\n}"
				},
				"url": {
					"raw": "http://localhost:8080/api/game",
					"protocol": "http",
					"host": [
						"localhost"
					],
					"port": "8080",
					"path": [
						"api",
						"game"
					]
				}
			},
          "response": []
        },
      {
        "name": "http://localhost:8080/api/games",
        "request": {
          "method": "GET",
          "header": [
            {
              "key": "Content-Type",
              "value": "application/json"
            }
          ],
          "body": {
            "mode": "raw",
            "raw": "{\n\t\"humanChoice\": \"Stein\"\n}"
          },
          "url": {
            "raw": "http://localhost:8080/api/games",
            "protocol": "http",
            "host": [
              "localhost"
            ],
            "port": "8080",
            "path": [
              "api",
              "games"
            ]
          }
        },
			"response": []
		}
	]
}
